{
    "/js/app.js": "/js/app.js",
    "/css/app.css": "/css/app.css",
    "/images/000.png": "/images/000.png",
    "/images/bg-001.png": "/images/bg-001.png",
    "/images/bg-01.jpg": "/images/bg-01.jpg",
    "/images/bg-masthead.jpg": "/images/bg-masthead.jpg",
    "/images/bg-signup.jpg": "/images/bg-signup.jpg",
    "/images/demo-image-01.jpg": "/images/demo-image-01.jpg",
    "/images/demo-image-02.jpg": "/images/demo-image-02.jpg",
    "/images/favicon.ico": "/images/favicon.ico",
    "/images/imagen.jpg": "/images/imagen.jpg",
    "/images/img01.png": "/images/img01.png",
    "/images/img1.jpg": "/images/img1.jpg",
    "/images/img2.jpg": "/images/img2.jpg",
    "/images/ipad.png": "/images/ipad.png",
    "/images/RpzrMR2.jpg": "/images/RpzrMR2.jpg",
    "/fonts/Montserrat-Bold.ttf": "/fonts/Montserrat-Bold.ttf",
    "/fonts/Poppins-Bold.ttf": "/fonts/Poppins-Bold.ttf",
    "/fonts/Poppins-Light.ttf": "/fonts/Poppins-Light.ttf",
    "/fonts/Poppins-Medium.ttf": "/fonts/Poppins-Medium.ttf",
    "/fonts/Poppins-Regular.ttf": "/fonts/Poppins-Regular.ttf",
    "/fonts/Poppins-SemiBold.ttf": "/fonts/Poppins-SemiBold.ttf",
    "/js/myscripts/sb-admin-2.min.js": "/js/myscripts/sb-admin-2.min.js",
    "/js/myscripts/scriptMain.js": "/js/myscripts/scriptMain.js"
}
